EESchema Schematic File Version 4
EELAYER 30 0
EELAYER END
$Descr A4 11693 8268
encoding utf-8
Sheet 1 2
Title ""
Date ""
Rev ""
Comp ""
Comment1 ""
Comment2 ""
Comment3 ""
Comment4 ""
$EndDescr
$Comp
L power:+5V #PWR0102
U 1 1 5EAA4BD8
P 1600 1700
F 0 "#PWR0102" H 1600 1550 50  0001 C CNN
F 1 "+5V" H 1615 1873 50  0000 C CNN
F 2 "" H 1600 1700 50  0001 C CNN
F 3 "" H 1600 1700 50  0001 C CNN
F 4 "V" H 1600 1700 50  0001 C CNN "Spice_Primitive"
F 5 "pulse(5 5)" H 1600 1700 50  0001 C CNN "Spice_Model"
F 6 "Y" H 1600 1700 50  0001 C CNN "Spice_Netlist_Enabled"
	1    1600 1700
	1    0    0    -1  
$EndComp
$Sheet
S 4600 2200 550  450 
U 5EAB13F0
F0 "Oscillator" 50
F1 "Oscillator.sch" 50
F2 "FOUT" I R 5150 2400 50 
F3 "CIN1" I L 4600 2300 50 
F4 "CIN2" I L 4600 2500 50 
$EndSheet
$Comp
L MCU_Microchip_ATmega:ATmega8-16PU U2
U 1 1 5EACE6FA
P 2350 3100
F 0 "U2" H 2350 4681 50  0000 C CNN
F 1 "ATmega8-16PU" H 2350 4590 50  0000 C CNN
F 2 "Package_DIP:DIP-28_W7.62mm" H 2350 3100 50  0001 C CIN
F 3 "http://ww1.microchip.com/downloads/en/DeviceDoc/atmel-2486-8-bit-avr-microcontroller-atmega8_l_datasheet.pdf" H 2350 3100 50  0001 C CNN
	1    2350 3100
	1    0    0    -1  
$EndComp
$Comp
L Device:R R10
U 1 1 5EAD10B7
P 1600 1850
F 0 "R10" H 1670 1896 50  0000 L CNN
F 1 "10k" H 1670 1805 50  0000 L CNN
F 2 "" V 1530 1850 50  0001 C CNN
F 3 "~" H 1600 1850 50  0001 C CNN
	1    1600 1850
	1    0    0    -1  
$EndComp
Wire Wire Line
	1600 2000 1750 2000
$Comp
L Device:Crystal Y1
U 1 1 5EAD1631
P 1000 2300
F 0 "Y1" V 954 2431 50  0000 L CNN
F 1 "16Mhz" V 1045 2431 50  0000 L CNN
F 2 "" H 1000 2300 50  0001 C CNN
F 3 "~" H 1000 2300 50  0001 C CNN
	1    1000 2300
	0    1    1    0   
$EndComp
Wire Wire Line
	1750 2200 1250 2200
Wire Wire Line
	1250 2200 1250 2150
Wire Wire Line
	1250 2150 1000 2150
Wire Wire Line
	1000 2450 1450 2450
Wire Wire Line
	1450 2450 1450 2400
Wire Wire Line
	1450 2400 1750 2400
$Comp
L power:+5V #PWR0101
U 1 1 5EAD2D01
P 2450 1450
F 0 "#PWR0101" H 2450 1300 50  0001 C CNN
F 1 "+5V" H 2465 1623 50  0000 C CNN
F 2 "" H 2450 1450 50  0001 C CNN
F 3 "" H 2450 1450 50  0001 C CNN
F 4 "V" H 2450 1450 50  0001 C CNN "Spice_Primitive"
F 5 "pulse(5 5)" H 2450 1450 50  0001 C CNN "Spice_Model"
F 6 "Y" H 2450 1450 50  0001 C CNN "Spice_Netlist_Enabled"
	1    2450 1450
	1    0    0    -1  
$EndComp
Wire Wire Line
	2450 1450 2450 1600
Wire Wire Line
	2450 1600 2350 1600
Wire Wire Line
	2350 1600 2350 1700
Connection ~ 2450 1600
Wire Wire Line
	2450 1600 2450 1700
$Comp
L power:+5V #PWR0103
U 1 1 5EAD3AC7
P 1400 2600
F 0 "#PWR0103" H 1400 2450 50  0001 C CNN
F 1 "+5V" H 1415 2773 50  0000 C CNN
F 2 "" H 1400 2600 50  0001 C CNN
F 3 "" H 1400 2600 50  0001 C CNN
F 4 "V" H 1400 2600 50  0001 C CNN "Spice_Primitive"
F 5 "pulse(5 5)" H 1400 2600 50  0001 C CNN "Spice_Model"
F 6 "Y" H 1400 2600 50  0001 C CNN "Spice_Netlist_Enabled"
	1    1400 2600
	0    -1   -1   0   
$EndComp
$Comp
L Device:R R11
U 1 1 5EAD4409
P 1550 2600
F 0 "R11" V 1343 2600 50  0000 C CNN
F 1 "10k" V 1434 2600 50  0000 C CNN
F 2 "" V 1480 2600 50  0001 C CNN
F 3 "~" H 1550 2600 50  0001 C CNN
	1    1550 2600
	0    1    1    0   
$EndComp
Wire Wire Line
	1700 2600 1750 2600
$Comp
L Display_Character:HY1602E DS1
U 1 1 5EAD4D15
P 5000 4250
F 0 "DS1" H 5000 5231 50  0000 C CNN
F 1 "HY1602E" H 5000 5140 50  0000 C CNN
F 2 "Display:HY1602E" H 5000 3350 50  0001 C CIN
F 3 "http://www.icbank.com/data/ICBShop/board/HY1602E.pdf" H 5200 4350 50  0001 C CNN
	1    5000 4250
	1    0    0    -1  
$EndComp
Wire Wire Line
	2950 2100 3150 2100
Wire Wire Line
	2950 2000 3150 2000
Wire Wire Line
	2950 3400 3150 3400
Wire Wire Line
	2950 3500 3150 3500
Wire Wire Line
	2950 3600 3150 3600
Wire Wire Line
	3150 3700 2950 3700
Wire Wire Line
	2950 3800 3150 3800
Wire Wire Line
	3150 3900 2950 3900
Wire Wire Line
	4600 4250 4400 4250
Wire Wire Line
	4600 4350 4400 4350
Wire Wire Line
	4600 4450 4400 4450
Wire Wire Line
	4600 4550 4400 4550
Wire Wire Line
	4600 4650 4400 4650
Wire Wire Line
	4600 4750 4400 4750
Wire Wire Line
	4600 4850 4400 4850
Text Label 3150 2100 0    50   ~ 0
LCD_D7
Text Label 3150 2000 0    50   ~ 0
LCD_D6
Text Label 3150 3400 0    50   ~ 0
LCD_D0
Text Label 3150 3500 0    50   ~ 0
LCD_D1
Text Label 3150 3600 0    50   ~ 0
LCD_D2
Text Label 3150 3700 0    50   ~ 0
LCD_D3
Text Label 3150 3800 0    50   ~ 0
LCD_D4
Text Label 3150 3900 0    50   ~ 0
LCD_D5
Text Label 4400 4150 2    50   ~ 0
LCD_D0
Wire Wire Line
	4400 4150 4600 4150
Text Label 4400 4250 2    50   ~ 0
LCD_D1
Text Label 4400 4350 2    50   ~ 0
LCD_D2
Text Label 4400 4450 2    50   ~ 0
LCD_D3
Text Label 4400 4550 2    50   ~ 0
LCD_D4
Text Label 4400 4650 2    50   ~ 0
LCD_D5
Text Label 4400 4750 2    50   ~ 0
LCD_D6
Text Label 4400 4850 2    50   ~ 0
LCD_D7
Wire Wire Line
	2950 2200 3150 2200
Wire Wire Line
	2950 2300 3150 2300
Wire Wire Line
	2950 2400 3150 2400
Wire Wire Line
	2950 4100 3150 4100
Text Label 3150 2200 0    50   ~ 0
LCD_RS
Text Label 3150 2300 0    50   ~ 0
LCD_RW
Text Label 3150 2400 0    50   ~ 0
LCD_EN
Text Label 4400 3950 2    50   ~ 0
LCD_RS
Text Label 4400 3850 2    50   ~ 0
LCD_RW
Text Label 4400 3650 2    50   ~ 0
LCD_EN
Wire Wire Line
	4400 3650 4600 3650
Wire Wire Line
	4400 3850 4600 3850
Wire Wire Line
	4600 3950 4400 3950
$Comp
L power:GND #PWR?
U 1 1 5EAEEE29
P 5450 4400
F 0 "#PWR?" H 5450 4150 50  0001 C CNN
F 1 "GND" H 5455 4227 50  0000 C CNN
F 2 "" H 5450 4400 50  0001 C CNN
F 3 "" H 5450 4400 50  0001 C CNN
	1    5450 4400
	1    0    0    -1  
$EndComp
Wire Wire Line
	5400 4350 5450 4350
Wire Wire Line
	5450 4350 5450 4400
Wire Wire Line
	5400 4250 5450 4250
Wire Wire Line
	5450 4250 5450 4200
$Comp
L power:+5V #PWR?
U 1 1 5EAF09F5
P 5450 4200
F 0 "#PWR?" H 5450 4050 50  0001 C CNN
F 1 "+5V" H 5465 4373 50  0000 C CNN
F 2 "" H 5450 4200 50  0001 C CNN
F 3 "" H 5450 4200 50  0001 C CNN
F 4 "V" H 5450 4200 50  0001 C CNN "Spice_Primitive"
F 5 "pulse(5 5)" H 5450 4200 50  0001 C CNN "Spice_Model"
F 6 "Y" H 5450 4200 50  0001 C CNN "Spice_Netlist_Enabled"
	1    5450 4200
	1    0    0    -1  
$EndComp
$Comp
L Device:RTRIM R12
U 1 1 5EAF15EA
P 5500 3400
F 0 "R12" H 5628 3446 50  0000 L CNN
F 1 "10k" H 5628 3355 50  0000 L CNN
F 2 "" V 5430 3400 50  0001 C CNN
F 3 "~" H 5500 3400 50  0001 C CNN
	1    5500 3400
	1    0    0    -1  
$EndComp
$Comp
L power:+5V #PWR?
U 1 1 5EAF1974
P 5500 3150
F 0 "#PWR?" H 5500 3000 50  0001 C CNN
F 1 "+5V" H 5515 3323 50  0000 C CNN
F 2 "" H 5500 3150 50  0001 C CNN
F 3 "" H 5500 3150 50  0001 C CNN
F 4 "V" H 5500 3150 50  0001 C CNN "Spice_Primitive"
F 5 "pulse(5 5)" H 5500 3150 50  0001 C CNN "Spice_Model"
F 6 "Y" H 5500 3150 50  0001 C CNN "Spice_Netlist_Enabled"
	1    5500 3150
	1    0    0    -1  
$EndComp
Wire Wire Line
	5500 3150 5500 3250
Wire Wire Line
	5500 3550 5500 3650
Wire Wire Line
	5500 3650 5400 3650
$Comp
L power:GND #PWR?
U 1 1 5EAF319F
P 5000 5050
F 0 "#PWR?" H 5000 4800 50  0001 C CNN
F 1 "GND" H 5005 4877 50  0000 C CNN
F 2 "" H 5000 5050 50  0001 C CNN
F 3 "" H 5000 5050 50  0001 C CNN
	1    5000 5050
	1    0    0    -1  
$EndComp
$Comp
L power:+5V #PWR?
U 1 1 5EAF366B
P 5000 3450
F 0 "#PWR?" H 5000 3300 50  0001 C CNN
F 1 "+5V" H 5015 3623 50  0000 C CNN
F 2 "" H 5000 3450 50  0001 C CNN
F 3 "" H 5000 3450 50  0001 C CNN
F 4 "V" H 5000 3450 50  0001 C CNN "Spice_Primitive"
F 5 "pulse(5 5)" H 5000 3450 50  0001 C CNN "Spice_Model"
F 6 "Y" H 5000 3450 50  0001 C CNN "Spice_Netlist_Enabled"
	1    5000 3450
	1    0    0    -1  
$EndComp
Wire Wire Line
	5150 2400 5250 2400
Text Label 5250 2400 0    50   ~ 0
FCNT
Text Label 3150 4100 0    50   ~ 0
FCNT
$Comp
L Connector:Conn_01x02_Female J1
U 1 1 5EAF8268
P 4050 1950
F 0 "J1" V 3988 1762 50  0000 R CNN
F 1 "Conn_01x02_Female" V 3897 1762 50  0000 R CNN
F 2 "" H 4050 1950 50  0001 C CNN
F 3 "~" H 4050 1950 50  0001 C CNN
	1    4050 1950
	0    -1   -1   0   
$EndComp
Wire Wire Line
	4150 2150 4150 2300
Wire Wire Line
	4150 2300 4600 2300
Wire Wire Line
	4050 2150 4050 2500
Wire Wire Line
	4050 2500 4600 2500
$EndSCHEMATC
