EESchema Schematic File Version 4
EELAYER 30 0
EELAYER END
$Descr A4 11693 8268
encoding utf-8
Sheet 1 2
Title ""
Date ""
Rev ""
Comp ""
Comment1 ""
Comment2 ""
Comment3 ""
Comment4 ""
$EndDescr
$Comp
L Device:L L1
U 1 1 5EAAE1B6
P 6350 4150
F 0 "L1" H 6403 4196 50  0000 L CNN
F 1 "1u" H 6403 4105 50  0000 L CNN
F 2 "" H 6350 4150 50  0001 C CNN
F 3 "~" H 6350 4150 50  0001 C CNN
	1    6350 4150
	1    0    0    -1  
$EndComp
$Comp
L Device:L L2
U 1 1 5EAAE867
P 7700 4100
F 0 "L2" H 7753 4146 50  0000 L CNN
F 1 "1u" H 7753 4055 50  0000 L CNN
F 2 "" H 7700 4100 50  0001 C CNN
F 3 "~" H 7700 4100 50  0001 C CNN
	1    7700 4100
	1    0    0    -1  
$EndComp
$Comp
L pspice:OPAMP U1
U 1 1 5EAFCBA1
P 7050 3700
F 0 "U1" H 7394 3746 50  0000 L CNN
F 1 "OPAMP" H 7394 3655 50  0000 L CNN
F 2 "" H 7050 3700 50  0001 C CNN
F 3 "~" H 7050 3700 50  0001 C CNN
F 4 "X" H 7050 3700 50  0001 C CNN "Spice_Primitive"
F 5 "lmv358" H 7050 3700 50  0001 C CNN "Spice_Model"
F 6 "Y" H 7050 3700 50  0001 C CNN "Spice_Netlist_Enabled"
F 7 "/home/kylel/pspice_models/lmv358-n/LMV358.MOD" H 7050 3700 50  0001 C CNN "Spice_Lib_File"
	1    7050 3700
	1    0    0    -1  
$EndComp
Wire Wire Line
	6950 3400 6950 3350
Wire Wire Line
	7450 2650 7450 3000
Wire Wire Line
	6350 4300 6350 4400
Wire Wire Line
	7700 4400 7700 4250
Wire Wire Line
	6950 4000 6950 4400
Connection ~ 6950 4400
Wire Wire Line
	6950 4400 7700 4400
$Comp
L Device:R R2
U 1 1 5EB00E83
P 6550 3800
F 0 "R2" V 6343 3800 50  0000 C CNN
F 1 "1k" V 6434 3800 50  0000 C CNN
F 2 "" V 6480 3800 50  0001 C CNN
F 3 "~" H 6550 3800 50  0001 C CNN
	1    6550 3800
	0    1    1    0   
$EndComp
$Comp
L Device:R R1
U 1 1 5EB03194
P 6950 3000
F 0 "R1" V 6743 3000 50  0000 C CNN
F 1 "100k" V 6834 3000 50  0000 C CNN
F 2 "" V 6880 3000 50  0001 C CNN
F 3 "~" H 6950 3000 50  0001 C CNN
	1    6950 3000
	0    1    1    0   
$EndComp
Wire Wire Line
	7100 3000 7450 3000
Wire Wire Line
	6800 3000 6700 3000
Wire Wire Line
	6350 4400 6750 4400
Wire Wire Line
	6700 3000 6700 3800
Wire Wire Line
	6750 3800 6700 3800
Connection ~ 6700 3800
Wire Wire Line
	6400 3800 6350 3800
Connection ~ 6350 3800
Wire Wire Line
	6350 3800 6350 4000
Wire Wire Line
	6350 2650 6350 3800
Connection ~ 6750 4400
Wire Wire Line
	6750 4400 6950 4400
Wire Wire Line
	6750 3600 6750 4400
Wire Wire Line
	7350 3700 7450 3700
Wire Wire Line
	7450 3700 7450 3000
Connection ~ 7450 3000
Wire Wire Line
	7450 3700 7700 3700
Connection ~ 7450 3700
Wire Wire Line
	7700 3700 7700 3950
Connection ~ 7700 3700
Wire Wire Line
	7700 3700 7850 3700
Text HLabel 7850 3700 2    50   Input ~ 0
FOUT
Text HLabel 6350 2650 1    50   Input ~ 0
CIN1
Text HLabel 7450 2650 1    50   Input ~ 0
CIN2
$Comp
L power:+5V #PWR0104
U 1 1 5EAD1038
P 6950 3350
F 0 "#PWR0104" H 6950 3200 50  0001 C CNN
F 1 "+5V" H 6965 3523 50  0000 C CNN
F 2 "" H 6950 3350 50  0001 C CNN
F 3 "" H 6950 3350 50  0001 C CNN
	1    6950 3350
	1    0    0    -1  
$EndComp
$Comp
L power:GND #PWR0105
U 1 1 5EAD1414
P 6950 4400
F 0 "#PWR0105" H 6950 4150 50  0001 C CNN
F 1 "GND" H 6955 4227 50  0000 C CNN
F 2 "" H 6950 4400 50  0001 C CNN
F 3 "" H 6950 4400 50  0001 C CNN
	1    6950 4400
	1    0    0    -1  
$EndComp
$EndSCHEMATC
